{
    "configName": "bigven",
    "exchangeKeyRef": "bigone",

    "exchangeAPIRef": "bigone",
    "exchangeName": "BIG:VEN",
    "market": "VEN-BTC",
    "pricePrecision": 8,
    "amountPrecision": 1,
    "fee": 0.001,
    "targetDepth": 0.005,
    "volumeRatio": 0.98,
    "undercut": 1e-8,
    "pRatioThreshold": 0.001,
    "minOrderSize": 0.1,
    "btcUseRatio": 1,
	"serial": false,
	"delay": 1
}
