{"exchanges":
    {
        "coinfalcon":
        [
            {
                "market": "ETH-BTC",
                "precision": 5,
                "fee": 0.0025,

                "targetDepth": 0.001,
                "volumeRatio": 0.99,
                "undercut": 0.000011,
                "pRatioThreshold": 0.005,
                "minOrderSize": 10e-5,
                "btcUseRatio": 1
            }
        ]
    }
}
