{"exchange": {
    "configName": "CHANGE THIS",
    "exchangeKeyRef": "CHANGE THIS",
    "exchangeAPIRef": "CHANGE THIS",
    "market": "ETH-BTC",
    "amountPrecision": 5,
    "pricePrecision": 5,
    "fee": 0.0025,
    "minOrderSize": 1e-3,
    "volumeRatio": 0.96,
    "e2market": "ETH-BTC",
    "checkOrders": true,
    "serial": false
    },
"mainLoop": {
"stop": false,
"pause": false,
"interval": 2
},
"binance": {
    "btc_use_ratio": 0.96,
    "market_sig_fig": 0,
    "fee": 0.0005,
    "market": "ETH-BTC"
},
"strategy": {
    "target_depths": {"buy": 0.005, "sell": 0.005},
    "thresholds": {"buy": 0.005, "sell": 0.005},
    "p_ratio_const": 1.4,
    "volume_ratio_cutoff": 1
}
}