{
    "configName": "kultc",
    "exchangeKeyRef": "kucoin",

    "exchangeAPIRef": "kucoin",
    "exchangeName": "KUC:LTC",
    "market": "LTC-BTC",
    "precision": 7,
    "fee": 0.001,
    "targetDepth": 2,
    "volumeRatio": 0.2,
    "undercut": 1e-7,
    "pRatioThreshold": 0.003,
    "minOrderSize": 1e-3,
    "btcUseRatio": 1,
	"serial": true,
	"delay": 1
}
