{"exchange": {
    "configName": "mercaLTC",
    "exchangeKeyRef": "mercatox",
    "exchangeAPIRef": "mercatox",
    "market": "LTC-BTC",
    "amountPrecision": 8,
    "pricePrecision": 8,
    "fee": 0.0025,
    "minOrderSize": 1e-3,
    "volumeRatio": 0.97,
    "e2market": "LTC-BTC",
    "checkOrders": false,
    "serial": true
    },
"mainLoop": {
"stop": false,
"pause": false,
"interval": 2
},
"binance": {
    "btc_use_ratio": 0.99,
    "market_sig_fig": 2,
    "fee": 0.0005,
    "market": "LTC-BTC"
},
"strategy": {
    "target_depths": {"buy": 0.001, "sell": 0.001},
    "thresholds": {"buy": 0.001, "sell": 0.002},
    "volume_ratio_cutoff": 1,
    "p_ratio_const": 1.4
}
}